
    <svg version="1.1" baseProfile="full" width="300" height="300"
      viewBox="-0.1 -0.1 1.2 1.2" xmlns="http://www.w3.org/2000/svg">
    <rect x="0" y="0" height="1" width="1" fill="green" />
  <line x1="0.8139680500445349" x2="0.5603380196304067" y1="0.238789421833558" y2="0.2086848839383375" stroke="orange" stroke-width="0.005" />
<line x1="0.8139680500445349" x2="0.5848314973149474" y1="0.238789421833558" y2="0.1270343408667297" stroke="orange" stroke-width="0.005" />


<line x1="0.8139680500445349" x2="0.5892992962429263" y1="0.238789421833558" y2="0.2873845343357184" stroke="orange" stroke-width="0.005" />
<line x1="0.5603380196304067" x2="0.5848314973149474" y1="0.2086848839383375" y2="0.1270343408667297" stroke="orange" stroke-width="0.01" />
<line x1="0.5603380196304067" x2="0.703313394021374" y1="0.2086848839383375" y2="0.9450318442460157" stroke="orange" stroke-width="0.005" />
<line x1="0.5603380196304067" x2="0.5650774650249136" y1="0.2086848839383375" y2="0.7689666888618493" stroke="orange" stroke-width="0.005" />
<line x1="0.5603380196304067" x2="0.5892992962429263" y1="0.2086848839383375" y2="0.2873845343357184" stroke="orange" stroke-width="0.01" />
<line x1="0.5848314973149474" x2="0.703313394021374" y1="0.1270343408667297" y2="0.9450318442460157" stroke="orange" stroke-width="0.005" />
<line x1="0.5848314973149474" x2="0.5650774650249136" y1="0.1270343408667297" y2="0.7689666888618493" stroke="orange" stroke-width="0.005" />
<line x1="0.5848314973149474" x2="0.5892992962429263" y1="0.1270343408667297" y2="0.2873845343357184" stroke="orange" stroke-width="0.01" />

<line x1="0.703313394021374" x2="0.5892992962429263" y1="0.9450318442460157" y2="0.2873845343357184" stroke="orange" stroke-width="0.005" />
<line x1="0.5650774650249136" x2="0.5892992962429263" y1="0.7689666888618493" y2="0.2873845343357184" stroke="orange" stroke-width="0.005" /><circle cx="0.8139680500445349" cy="0.238789421833558" r="0.05" fill="yellow" />
<text x="0.8139680500445349" y="0.238789421833558" font-size="0.07px" dominant-baseline="middle" text-anchor="middle">0</text>
<circle cx="0.5603380196304067" cy="0.2086848839383375" r="0.05" fill="yellow" />
<text x="0.5603380196304067" y="0.2086848839383375" font-size="0.07px" dominant-baseline="middle" text-anchor="middle">1</text>
<circle cx="0.5848314973149474" cy="0.1270343408667297" r="0.05" fill="yellow" />
<text x="0.5848314973149474" y="0.1270343408667297" font-size="0.07px" dominant-baseline="middle" text-anchor="middle">2</text>
<circle cx="0.703313394021374" cy="0.9450318442460157" r="0.05" fill="yellow" />
<text x="0.703313394021374" y="0.9450318442460157" font-size="0.07px" dominant-baseline="middle" text-anchor="middle">3</text>
<circle cx="0.5650774650249136" cy="0.7689666888618493" r="0.05" fill="yellow" />
<text x="0.5650774650249136" y="0.7689666888618493" font-size="0.07px" dominant-baseline="middle" text-anchor="middle">4</text>
<circle cx="0.5892992962429263" cy="0.2873845343357184" r="0.05" fill="yellow" />
<text x="0.5892992962429263" y="0.2873845343357184" font-size="0.07px" dominant-baseline="middle" text-anchor="middle">5</text>

    </svg>
  