
    <svg version="1.1" baseProfile="full" width="300" height="300"
      viewBox="-0.1 -0.1 1.2 1.2" xmlns="http://www.w3.org/2000/svg">
    <rect x="0" y="0" height="1" width="1" fill="green" />
  <line x1="0.861797557608849" x2="0.8336224962385685" y1="0.6692714081476521" y2="0.5931007435191479" stroke="orange" stroke-width="0.01" />




<line x1="0.8336224962385685" x2="0.9246977317133261" y1="0.5931007435191479" y2="0.4965518245702103" stroke="orange" stroke-width="0.01" />
<line x1="0.8336224962385685" x2="0.28030386539056074" y1="0.5931007435191479" y2="0.974897300118131" stroke="orange" stroke-width="0.01" />

<line x1="0.8336224962385685" x2="0.9289325421212391" y1="0.5931007435191479" y2="0.4118781745277562" stroke="orange" stroke-width="0.01" />





<circle cx="0.861797557608849" cy="0.6692714081476521" r="0.05" fill="yellow" />
<text x="0.861797557608849" y="0.6692714081476521" font-size="0.07px" dominant-baseline="middle" text-anchor="middle">0</text>
<circle cx="0.8336224962385685" cy="0.5931007435191479" r="0.05" fill="yellow" />
<text x="0.8336224962385685" y="0.5931007435191479" font-size="0.07px" dominant-baseline="middle" text-anchor="middle">1</text>
<circle cx="0.9246977317133261" cy="0.4965518245702103" r="0.05" fill="yellow" />
<text x="0.9246977317133261" y="0.4965518245702103" font-size="0.07px" dominant-baseline="middle" text-anchor="middle">2</text>
<circle cx="0.28030386539056074" cy="0.974897300118131" r="0.05" fill="yellow" />
<text x="0.28030386539056074" y="0.974897300118131" font-size="0.07px" dominant-baseline="middle" text-anchor="middle">3</text>
<circle cx="0.0577481405861584" cy="0.5895745892112474" r="0.05" fill="yellow" />
<text x="0.0577481405861584" y="0.5895745892112474" font-size="0.07px" dominant-baseline="middle" text-anchor="middle">4</text>
<circle cx="0.9289325421212391" cy="0.4118781745277562" r="0.05" fill="yellow" />
<text x="0.9289325421212391" y="0.4118781745277562" font-size="0.07px" dominant-baseline="middle" text-anchor="middle">5</text>

    </svg>
  