
    <svg version="1.1" baseProfile="full" width="300" height="300"
      viewBox="-0.1 -0.1 1.2 1.2" xmlns="http://www.w3.org/2000/svg">
    <rect x="0" y="0" height="1" width="1" fill="green" />
  <line x1="0.6020836772171332" x2="0.12179189730079443" y1="0.21436926945364976" y2="0.3233306576850803" stroke="orange" stroke-width="0.01" />
<line x1="0.6020836772171332" x2="0.5328367138267608" y1="0.21436926945364976" y2="0.6428229404143297" stroke="orange" stroke-width="0.01" />
<line x1="0.6020836772171332" x2="0.41235837878259896" y1="0.21436926945364976" y2="0.8477438434003437" stroke="orange" stroke-width="0.005" />
<line x1="0.6020836772171332" x2="0.8845576656248005" y1="0.21436926945364976" y2="0.6984956546815217" stroke="orange" stroke-width="0.005" />
<line x1="0.6020836772171332" x2="0.7259596080676368" y1="0.21436926945364976" y2="0.9741593939033277" stroke="orange" stroke-width="0.01" />
<line x1="0.12179189730079443" x2="0.5328367138267608" y1="0.3233306576850803" y2="0.6428229404143297" stroke="orange" stroke-width="0.01" />
<line x1="0.12179189730079443" x2="0.41235837878259896" y1="0.3233306576850803" y2="0.8477438434003437" stroke="orange" stroke-width="0.005" />
<line x1="0.12179189730079443" x2="0.8845576656248005" y1="0.3233306576850803" y2="0.6984956546815217" stroke="orange" stroke-width="0.005" />
<line x1="0.12179189730079443" x2="0.7259596080676368" y1="0.3233306576850803" y2="0.9741593939033277" stroke="orange" stroke-width="0.01" />
<line x1="0.5328367138267608" x2="0.41235837878259896" y1="0.6428229404143297" y2="0.8477438434003437" stroke="orange" stroke-width="0.005" />
<line x1="0.5328367138267608" x2="0.8845576656248005" y1="0.6428229404143297" y2="0.6984956546815217" stroke="orange" stroke-width="0.005" />
<line x1="0.5328367138267608" x2="0.7259596080676368" y1="0.6428229404143297" y2="0.9741593939033277" stroke="orange" stroke-width="0.01" />


<circle cx="0.6020836772171332" cy="0.21436926945364976" r="0.05" fill="yellow" />
<text x="0.6020836772171332" y="0.21436926945364976" font-size="0.07px" dominant-baseline="middle" text-anchor="middle">0</text>
<circle cx="0.12179189730079443" cy="0.3233306576850803" r="0.05" fill="yellow" />
<text x="0.12179189730079443" y="0.3233306576850803" font-size="0.07px" dominant-baseline="middle" text-anchor="middle">1</text>
<circle cx="0.5328367138267608" cy="0.6428229404143297" r="0.05" fill="yellow" />
<text x="0.5328367138267608" y="0.6428229404143297" font-size="0.07px" dominant-baseline="middle" text-anchor="middle">2</text>
<circle cx="0.41235837878259896" cy="0.8477438434003437" r="0.05" fill="yellow" />
<text x="0.41235837878259896" y="0.8477438434003437" font-size="0.07px" dominant-baseline="middle" text-anchor="middle">3</text>
<circle cx="0.8845576656248005" cy="0.6984956546815217" r="0.05" fill="yellow" />
<text x="0.8845576656248005" y="0.6984956546815217" font-size="0.07px" dominant-baseline="middle" text-anchor="middle">4</text>
<circle cx="0.7259596080676368" cy="0.9741593939033277" r="0.05" fill="yellow" />
<text x="0.7259596080676368" y="0.9741593939033277" font-size="0.07px" dominant-baseline="middle" text-anchor="middle">5</text>

    </svg>
  