
    <svg version="1.1" baseProfile="full" width="300" height="300"
      viewBox="-0.1 -0.1 1.2 1.2" xmlns="http://www.w3.org/2000/svg">
    <rect x="0" y="0" height="1" width="1" fill="green" />
  

<line x1="0.8516107457606262" x2="0.40461495490844446" y1="0.45196657441796384" y2="0.8025106532710038" stroke="orange" stroke-width="0.005" />
<line x1="0.8516107457606262" x2="0.5326472893082034" y1="0.45196657441796384" y2="0.7129046026574906" stroke="orange" stroke-width="0.005" />
<line x1="0.8516107457606262" x2="0.5725819239429445" y1="0.45196657441796384" y2="0.17179541964947775" stroke="orange" stroke-width="0.005" />
<line x1="0.6945716694027412" x2="0.5581467470951834" y1="0.5003915533232233" y2="0.3846557068259532" stroke="orange" stroke-width="0.01" />
<line x1="0.6945716694027412" x2="0.40461495490844446" y1="0.5003915533232233" y2="0.8025106532710038" stroke="orange" stroke-width="0.01" />
<line x1="0.6945716694027412" x2="0.5326472893082034" y1="0.5003915533232233" y2="0.7129046026574906" stroke="orange" stroke-width="0.01" />
<line x1="0.6945716694027412" x2="0.5725819239429445" y1="0.5003915533232233" y2="0.17179541964947775" stroke="orange" stroke-width="0.01" />
<line x1="0.5581467470951834" x2="0.40461495490844446" y1="0.3846557068259532" y2="0.8025106532710038" stroke="orange" stroke-width="0.005" />
<line x1="0.5581467470951834" x2="0.5326472893082034" y1="0.3846557068259532" y2="0.7129046026574906" stroke="orange" stroke-width="0.005" />
<line x1="0.5581467470951834" x2="0.5725819239429445" y1="0.3846557068259532" y2="0.17179541964947775" stroke="orange" stroke-width="0.005" />


<circle cx="0.8516107457606262" cy="0.45196657441796384" r="0.05" fill="yellow" />
<text x="0.8516107457606262" y="0.45196657441796384" font-size="0.07px" dominant-baseline="middle" text-anchor="middle">0</text>
<circle cx="0.6945716694027412" cy="0.5003915533232233" r="0.05" fill="yellow" />
<text x="0.6945716694027412" y="0.5003915533232233" font-size="0.07px" dominant-baseline="middle" text-anchor="middle">1</text>
<circle cx="0.5581467470951834" cy="0.3846557068259532" r="0.05" fill="yellow" />
<text x="0.5581467470951834" y="0.3846557068259532" font-size="0.07px" dominant-baseline="middle" text-anchor="middle">2</text>
<circle cx="0.40461495490844446" cy="0.8025106532710038" r="0.05" fill="yellow" />
<text x="0.40461495490844446" y="0.8025106532710038" font-size="0.07px" dominant-baseline="middle" text-anchor="middle">3</text>
<circle cx="0.5326472893082034" cy="0.7129046026574906" r="0.05" fill="yellow" />
<text x="0.5326472893082034" y="0.7129046026574906" font-size="0.07px" dominant-baseline="middle" text-anchor="middle">4</text>
<circle cx="0.5725819239429445" cy="0.17179541964947775" r="0.05" fill="yellow" />
<text x="0.5725819239429445" y="0.17179541964947775" font-size="0.07px" dominant-baseline="middle" text-anchor="middle">5</text>

    </svg>
  