
    <svg version="1.1" baseProfile="full" width="300" height="300"
      viewBox="-0.1 -0.1 1.2 1.2" xmlns="http://www.w3.org/2000/svg">
    <rect x="0" y="0" height="1" width="1" fill="green" />
  <line x1="0.2905832507288374" x2="0.041228289103499294" y1="0.5996460091089691" y2="0.18368574406818727" stroke="orange" stroke-width="0.005" />



<line x1="0.2905832507288374" x2="0.7692670120324505" y1="0.5996460091089691" y2="0.024292611031574096" stroke="orange" stroke-width="0.005" />

<line x1="0.041228289103499294" x2="0.7114292453774131" y1="0.18368574406818727" y2="0.6606161670822029" stroke="orange" stroke-width="0.01" />

<line x1="0.041228289103499294" x2="0.7692670120324505" y1="0.18368574406818727" y2="0.024292611031574096" stroke="orange" stroke-width="0.005" />
<line x1="0.26195851918639945" x2="0.7114292453774131" y1="0.7864489798842712" y2="0.6606161670822029" stroke="orange" stroke-width="0.005" />
<line x1="0.26195851918639945" x2="0.19077216523149243" y1="0.7864489798842712" y2="0.065211640354078" stroke="orange" stroke-width="0.01" />

<line x1="0.7114292453774131" x2="0.19077216523149243" y1="0.6606161670822029" y2="0.065211640354078" stroke="orange" stroke-width="0.005" />

<circle cx="0.2905832507288374" cy="0.5996460091089691" r="0.05" fill="yellow" />
<text x="0.2905832507288374" y="0.5996460091089691" font-size="0.07px" dominant-baseline="middle" text-anchor="middle">0</text>
<circle cx="0.041228289103499294" cy="0.18368574406818727" r="0.05" fill="yellow" />
<text x="0.041228289103499294" y="0.18368574406818727" font-size="0.07px" dominant-baseline="middle" text-anchor="middle">1</text>
<circle cx="0.26195851918639945" cy="0.7864489798842712" r="0.05" fill="yellow" />
<text x="0.26195851918639945" y="0.7864489798842712" font-size="0.07px" dominant-baseline="middle" text-anchor="middle">2</text>
<circle cx="0.7114292453774131" cy="0.6606161670822029" r="0.05" fill="yellow" />
<text x="0.7114292453774131" y="0.6606161670822029" font-size="0.07px" dominant-baseline="middle" text-anchor="middle">3</text>
<circle cx="0.19077216523149243" cy="0.065211640354078" r="0.05" fill="yellow" />
<text x="0.19077216523149243" y="0.065211640354078" font-size="0.07px" dominant-baseline="middle" text-anchor="middle">4</text>
<circle cx="0.7692670120324505" cy="0.024292611031574096" r="0.05" fill="yellow" />
<text x="0.7692670120324505" y="0.024292611031574096" font-size="0.07px" dominant-baseline="middle" text-anchor="middle">5</text>

    </svg>
  