
    <svg version="1.1" baseProfile="full" width="300" height="300"
      viewBox="-0.1 -0.1 1.2 1.2" xmlns="http://www.w3.org/2000/svg">
    <rect x="0" y="0" height="1" width="1" fill="green" />
  <line x1="0.23467353256193602" x2="0.032142474452373726" y1="0.8949343183130757" y2="0.61187806175027" stroke="orange" stroke-width="0.01" />
<line x1="0.23467353256193602" x2="0.27441224701906863" y1="0.8949343183130757" y2="0.11320747670224962" stroke="orange" stroke-width="0.005" />
<line x1="0.23467353256193602" x2="0.3854623544323551" y1="0.8949343183130757" y2="0.06160261146460033" stroke="orange" stroke-width="0.005" />
<line x1="0.23467353256193602" x2="0.46273134020031514" y1="0.8949343183130757" y2="0.8359933710225594" stroke="orange" stroke-width="0.005" />
<line x1="0.23467353256193602" x2="0.0416363282458031" y1="0.8949343183130757" y2="0.043850160567600494" stroke="orange" stroke-width="0.005" />
<line x1="0.032142474452373726" x2="0.27441224701906863" y1="0.61187806175027" y2="0.11320747670224962" stroke="orange" stroke-width="0.01" />
<line x1="0.032142474452373726" x2="0.3854623544323551" y1="0.61187806175027" y2="0.06160261146460033" stroke="orange" stroke-width="0.005" />
<line x1="0.032142474452373726" x2="0.46273134020031514" y1="0.61187806175027" y2="0.8359933710225594" stroke="orange" stroke-width="0.005" />
<line x1="0.032142474452373726" x2="0.0416363282458031" y1="0.61187806175027" y2="0.043850160567600494" stroke="orange" stroke-width="0.005" />
<line x1="0.27441224701906863" x2="0.3854623544323551" y1="0.11320747670224962" y2="0.06160261146460033" stroke="orange" stroke-width="0.01" />
<line x1="0.27441224701906863" x2="0.46273134020031514" y1="0.11320747670224962" y2="0.8359933710225594" stroke="orange" stroke-width="0.005" />
<line x1="0.27441224701906863" x2="0.0416363282458031" y1="0.11320747670224962" y2="0.043850160567600494" stroke="orange" stroke-width="0.005" />


<circle cx="0.23467353256193602" cy="0.8949343183130757" r="0.05" fill="yellow" />
<text x="0.23467353256193602" y="0.8949343183130757" font-size="0.07px" dominant-baseline="middle" text-anchor="middle">0</text>
<circle cx="0.032142474452373726" cy="0.61187806175027" r="0.05" fill="yellow" />
<text x="0.032142474452373726" y="0.61187806175027" font-size="0.07px" dominant-baseline="middle" text-anchor="middle">1</text>
<circle cx="0.27441224701906863" cy="0.11320747670224962" r="0.05" fill="yellow" />
<text x="0.27441224701906863" y="0.11320747670224962" font-size="0.07px" dominant-baseline="middle" text-anchor="middle">2</text>
<circle cx="0.3854623544323551" cy="0.06160261146460033" r="0.05" fill="yellow" />
<text x="0.3854623544323551" y="0.06160261146460033" font-size="0.07px" dominant-baseline="middle" text-anchor="middle">3</text>
<circle cx="0.46273134020031514" cy="0.8359933710225594" r="0.05" fill="yellow" />
<text x="0.46273134020031514" y="0.8359933710225594" font-size="0.07px" dominant-baseline="middle" text-anchor="middle">4</text>
<circle cx="0.0416363282458031" cy="0.043850160567600494" r="0.05" fill="yellow" />
<text x="0.0416363282458031" y="0.043850160567600494" font-size="0.07px" dominant-baseline="middle" text-anchor="middle">5</text>

    </svg>
  