
    <svg version="1.1" baseProfile="full" width="300" height="300"
      viewBox="-0.1 -0.1 1.2 1.2" xmlns="http://www.w3.org/2000/svg">
    <rect x="0" y="0" height="1" width="1" fill="green" />
  <line x1="0.713740417619917" x2="0.1865475106055824" y1="0.5288932268524249" y2="0.13722879098056595" stroke="orange" stroke-width="0.01" />

<line x1="0.713740417619917" x2="0.24396021639072119" y1="0.5288932268524249" y2="0.012715881883779256" stroke="orange" stroke-width="0.01" />
<line x1="0.713740417619917" x2="0.22513745400129592" y1="0.5288932268524249" y2="0.7262982549725677" stroke="orange" stroke-width="0.01" />
<line x1="0.713740417619917" x2="0.27086637800492963" y1="0.5288932268524249" y2="0.08445144775145719" stroke="orange" stroke-width="0.005" />
<line x1="0.1865475106055824" x2="0.7633811814456498" y1="0.13722879098056595" y2="0.8604180553183306" stroke="orange" stroke-width="0.01" />
<line x1="0.1865475106055824" x2="0.24396021639072119" y1="0.13722879098056595" y2="0.012715881883779256" stroke="orange" stroke-width="0.01" />
<line x1="0.1865475106055824" x2="0.22513745400129592" y1="0.13722879098056595" y2="0.7262982549725677" stroke="orange" stroke-width="0.01" />
<line x1="0.1865475106055824" x2="0.27086637800492963" y1="0.13722879098056595" y2="0.08445144775145719" stroke="orange" stroke-width="0.005" />
<line x1="0.7633811814456498" x2="0.24396021639072119" y1="0.8604180553183306" y2="0.012715881883779256" stroke="orange" stroke-width="0.01" />
<line x1="0.7633811814456498" x2="0.22513745400129592" y1="0.8604180553183306" y2="0.7262982549725677" stroke="orange" stroke-width="0.01" />
<line x1="0.7633811814456498" x2="0.27086637800492963" y1="0.8604180553183306" y2="0.08445144775145719" stroke="orange" stroke-width="0.005" />


<circle cx="0.713740417619917" cy="0.5288932268524249" r="0.05" fill="yellow" />
<text x="0.713740417619917" y="0.5288932268524249" font-size="0.07px" dominant-baseline="middle" text-anchor="middle">0</text>
<circle cx="0.1865475106055824" cy="0.13722879098056595" r="0.05" fill="yellow" />
<text x="0.1865475106055824" y="0.13722879098056595" font-size="0.07px" dominant-baseline="middle" text-anchor="middle">1</text>
<circle cx="0.7633811814456498" cy="0.8604180553183306" r="0.05" fill="yellow" />
<text x="0.7633811814456498" y="0.8604180553183306" font-size="0.07px" dominant-baseline="middle" text-anchor="middle">2</text>
<circle cx="0.24396021639072119" cy="0.012715881883779256" r="0.05" fill="yellow" />
<text x="0.24396021639072119" y="0.012715881883779256" font-size="0.07px" dominant-baseline="middle" text-anchor="middle">3</text>
<circle cx="0.22513745400129592" cy="0.7262982549725677" r="0.05" fill="yellow" />
<text x="0.22513745400129592" y="0.7262982549725677" font-size="0.07px" dominant-baseline="middle" text-anchor="middle">4</text>
<circle cx="0.27086637800492963" cy="0.08445144775145719" r="0.05" fill="yellow" />
<text x="0.27086637800492963" y="0.08445144775145719" font-size="0.07px" dominant-baseline="middle" text-anchor="middle">5</text>

    </svg>
  