
    <svg version="1.1" baseProfile="full" width="300" height="300"
      viewBox="-0.1 -0.1 1.2 1.2" xmlns="http://www.w3.org/2000/svg">
    <rect x="0" y="0" height="1" width="1" fill="green" />
  <line x1="0.19528774372604485" x2="0.3837751587632341" y1="0.7024362434923475" y2="0.5730645727098087" stroke="orange" stroke-width="0.005" />
<line x1="0.19528774372604485" x2="0.9813676009275254" y1="0.7024362434923475" y2="0.4396384382007642" stroke="orange" stroke-width="0.005" />
<line x1="0.19528774372604485" x2="0.038773234172164606" y1="0.7024362434923475" y2="0.4566539335010953" stroke="orange" stroke-width="0.005" />
<line x1="0.19528774372604485" x2="0.7593037423089639" y1="0.7024362434923475" y2="0.48450302865267947" stroke="orange" stroke-width="0.005" />


<line x1="0.3837751587632341" x2="0.038773234172164606" y1="0.5730645727098087" y2="0.4566539335010953" stroke="orange" stroke-width="0.005" />
<line x1="0.3837751587632341" x2="0.7593037423089639" y1="0.5730645727098087" y2="0.48450302865267947" stroke="orange" stroke-width="0.005" />
<line x1="0.3837751587632341" x2="0.9052092053471485" y1="0.5730645727098087" y2="0.9464551841050834" stroke="orange" stroke-width="0.005" />
<line x1="0.9813676009275254" x2="0.038773234172164606" y1="0.4396384382007642" y2="0.4566539335010953" stroke="orange" stroke-width="0.01" />

<line x1="0.9813676009275254" x2="0.9052092053471485" y1="0.4396384382007642" y2="0.9464551841050834" stroke="orange" stroke-width="0.005" />
<line x1="0.038773234172164606" x2="0.7593037423089639" y1="0.4566539335010953" y2="0.48450302865267947" stroke="orange" stroke-width="0.005" />
<line x1="0.038773234172164606" x2="0.9052092053471485" y1="0.4566539335010953" y2="0.9464551841050834" stroke="orange" stroke-width="0.005" />
<line x1="0.7593037423089639" x2="0.9052092053471485" y1="0.48450302865267947" y2="0.9464551841050834" stroke="orange" stroke-width="0.005" /><circle cx="0.19528774372604485" cy="0.7024362434923475" r="0.05" fill="yellow" />
<text x="0.19528774372604485" y="0.7024362434923475" font-size="0.07px" dominant-baseline="middle" text-anchor="middle">0</text>
<circle cx="0.3837751587632341" cy="0.5730645727098087" r="0.05" fill="yellow" />
<text x="0.3837751587632341" y="0.5730645727098087" font-size="0.07px" dominant-baseline="middle" text-anchor="middle">1</text>
<circle cx="0.9813676009275254" cy="0.4396384382007642" r="0.05" fill="yellow" />
<text x="0.9813676009275254" y="0.4396384382007642" font-size="0.07px" dominant-baseline="middle" text-anchor="middle">2</text>
<circle cx="0.038773234172164606" cy="0.4566539335010953" r="0.05" fill="yellow" />
<text x="0.038773234172164606" y="0.4566539335010953" font-size="0.07px" dominant-baseline="middle" text-anchor="middle">3</text>
<circle cx="0.7593037423089639" cy="0.48450302865267947" r="0.05" fill="yellow" />
<text x="0.7593037423089639" y="0.48450302865267947" font-size="0.07px" dominant-baseline="middle" text-anchor="middle">4</text>
<circle cx="0.9052092053471485" cy="0.9464551841050834" r="0.05" fill="yellow" />
<text x="0.9052092053471485" y="0.9464551841050834" font-size="0.07px" dominant-baseline="middle" text-anchor="middle">5</text>

    </svg>
  