    <svg version="1.1" baseProfile="full" width="300" height="300"
      viewBox="-0.1 -0.1 1.2 1.2" xmlns="http://www.w3.org/2000/svg">
    <rect x="0" y="0" height="1" width="1" fill="green" />
  <line x1="0.12257940908614451" x2="0.17607443411543033" y1="0.6889146885667796" y2="0.45640034363092774" stroke="orange" stroke-width="0.005" />
<line x1="0.12257940908614451" x2="0.3638323702314289" y1="0.6889146885667796" y2="0.46870713027598454" stroke="orange" stroke-width="0.005" />
<line x1="0.12257940908614451" x2="0.9975495240367745" y1="0.6889146885667796" y2="0.2539837329204413" stroke="orange" stroke-width="0.01" />

<line x1="0.12257940908614451" x2="0.29864900526889326" y1="0.6889146885667796" y2="0.2646184813290253" stroke="orange" stroke-width="0.005" />
<line x1="0.12257940908614451" x2="0.6235369213127808" y1="0.6889146885667796" y2="0.4984580825196442" stroke="orange" stroke-width="0.01" />



<line x1="0.17607443411543033" x2="0.9975495240367745" y1="0.45640034363092774" y2="0.2539837329204413" stroke="orange" stroke-width="0.01" />
<line x1="0.17607443411543033" x2="0.2208032748731662" y1="0.45640034363092774" y2="0.2771869348008641" stroke="orange" stroke-width="0.01" />


<line x1="0.17607443411543033" x2="0.13411415954597372" y1="0.45640034363092774" y2="0.123096210909177" stroke="orange" stroke-width="0.01" />
<line x1="0.17607443411543033" x2="0.8745424323205715" y1="0.45640034363092774" y2="0.2243016728884335" stroke="orange" stroke-width="0.005" />
<line x1="0.3638323702314289" x2="0.9975495240367745" y1="0.46870713027598454" y2="0.2539837329204413" stroke="orange" stroke-width="0.01" />




<line x1="0.3638323702314289" x2="0.8745424323205715" y1="0.46870713027598454" y2="0.2243016728884335" stroke="orange" stroke-width="0.01" />
<line x1="0.9975495240367745" x2="0.2208032748731662" y1="0.2539837329204413" y2="0.2771869348008641" stroke="orange" stroke-width="0.01" />
<line x1="0.9975495240367745" x2="0.29864900526889326" y1="0.2539837329204413" y2="0.2646184813290253" stroke="orange" stroke-width="0.01" />


<line x1="0.9975495240367745" x2="0.8745424323205715" y1="0.2539837329204413" y2="0.2243016728884335" stroke="orange" stroke-width="0.01" />


<line x1="0.2208032748731662" x2="0.13411415954597372" y1="0.2771869348008641" y2="0.123096210909177" stroke="orange" stroke-width="0.005" />
<line x1="0.2208032748731662" x2="0.8745424323205715" y1="0.2771869348008641" y2="0.2243016728884335" stroke="orange" stroke-width="0.01" />


<line x1="0.29864900526889326" x2="0.8745424323205715" y1="0.2646184813290253" y2="0.2243016728884335" stroke="orange" stroke-width="0.005" />

<line x1="0.6235369213127808" x2="0.8745424323205715" y1="0.4984580825196442" y2="0.2243016728884335" stroke="orange" stroke-width="0.005" />
<circle cx="0.12257940908614451" cy="0.6889146885667796" r="0.05" fill="yellow" />
<text x="0.12257940908614451" y="0.6889146885667796" font-size="0.07px" dominant-baseline="middle" text-anchor="middle">0</text>
<circle cx="0.17607443411543033" cy="0.45640034363092774" r="0.05" fill="yellow" />
<text x="0.17607443411543033" y="0.45640034363092774" font-size="0.07px" dominant-baseline="middle" text-anchor="middle">1</text>
<circle cx="0.3638323702314289" cy="0.46870713027598454" r="0.05" fill="yellow" />
<text x="0.3638323702314289" y="0.46870713027598454" font-size="0.07px" dominant-baseline="middle" text-anchor="middle">2</text>
<circle cx="0.9975495240367745" cy="0.2539837329204413" r="0.05" fill="yellow" />
<text x="0.9975495240367745" y="0.2539837329204413" font-size="0.07px" dominant-baseline="middle" text-anchor="middle">3</text>
<circle cx="0.2208032748731662" cy="0.2771869348008641" r="0.05" fill="yellow" />
<text x="0.2208032748731662" y="0.2771869348008641" font-size="0.07px" dominant-baseline="middle" text-anchor="middle">4</text>
<circle cx="0.29864900526889326" cy="0.2646184813290253" r="0.05" fill="yellow" />
<text x="0.29864900526889326" y="0.2646184813290253" font-size="0.07px" dominant-baseline="middle" text-anchor="middle">5</text>
<circle cx="0.6235369213127808" cy="0.4984580825196442" r="0.05" fill="yellow" />
<text x="0.6235369213127808" y="0.4984580825196442" font-size="0.07px" dominant-baseline="middle" text-anchor="middle">6</text>
<circle cx="0.13411415954597372" cy="0.123096210909177" r="0.05" fill="yellow" />
<text x="0.13411415954597372" y="0.123096210909177" font-size="0.07px" dominant-baseline="middle" text-anchor="middle">7</text>
<circle cx="0.8745424323205715" cy="0.2243016728884335" r="0.05" fill="yellow" />
<text x="0.8745424323205715" y="0.2243016728884335" font-size="0.07px" dominant-baseline="middle" text-anchor="middle">8</text>

    </svg>
